^E:\KINECT RENDER\FILTER.CPP|E:\KINECT RENDER\FILTERSMOOTH.CPP|E:\KINECT RENDER\KINECT_RENDER.CPP
E:\KINECT RENDER\KINECT_RENDER.DIR\DEBUG\KINECT_RENDER.OBJ
E:\KINECT RENDER\KINECT_RENDER.DIR\DEBUG\FILTERSMOOTH.OBJ
E:\KINECT RENDER\KINECT_RENDER.DIR\DEBUG\FILTER.OBJ
^E:\KINECT RENDER\FILTER.CPP
E:\KINECT RENDER\KINECT_RENDER.DIR\DEBUG\VC100.PDB
^E:\KINECT RENDER\FILTERSMOOTH.CPP
E:\KINECT RENDER\KINECT_RENDER.DIR\DEBUG\VC100.PDB
^E:\KINECT RENDER\KINECT_RENDER.CPP
E:\KINECT RENDER\KINECT_RENDER.DIR\DEBUG\KINECT_RENDER.OBJ
E:\KINECT RENDER\KINECT_RENDER.DIR\DEBUG\VC100.PDB
