^E:\KINECT BACKUP 14.2.2014\KINECT RENDER\CMAKEFILES\53FE52C0567ECAC4126EAA49682FEC7E\GENERATE.STAMP.RULE
setlocal
"C:\Program Files (x86)\CMake 2.8\bin\cmake.exe" "-HE:/Kinect Render" "-BE:/Kinect Render" --check-stamp-list CMakeFiles/generate.stamp.list --vs-solution-file "E:\Kinect Backup 14.2.2014\Kinect Render\Kinect_Render.sln"
if %errorlevel% neq 0 goto :cmEnd
:cmEnd
endlocal & call :cmErrorLevel %errorlevel% & goto :cmDone
:cmErrorLevel
exit /b %1
:cmDone
if %errorlevel% neq 0 goto :VCEnd
^E:\KINECT BACKUP 14.2.2014\KINECT RENDER\CMAKEFILES\53FE52C0567ECAC4126EAA49682FEC7E\ZERO_CHECK.RULE
setlocal
:cmEnd
endlocal & call :cmErrorLevel %errorlevel% & goto :cmDone
:cmErrorLevel
exit /b %1
:cmDone
if %errorlevel% neq 0 goto :VCEnd
