^E:\KINECT BACKUP 14.2.2014\KINECT RENDER\KINECT_RENDER.DIR\RELEASE\KINECT_RENDER.OBJ
E:\KINECT RENDER\RELEASE\KINECT_RENDER.EXE
E:\KINECT BACKUP 14.2.2014\KINECT RENDER\KINECT_RENDER.DIR\RELEASE\KINECT_RENDER.EXE.INTERMEDIATE.MANIFEST
